{
  "project_info": {
    "project_number": "254063705740",
    "firebase_url": "https://centrl-279806.firebaseio.com",
    "project_id": "centrl-279806",
    "storage_bucket": "centrl-279806.appspot.com"
  },
  "client": [
    {
      "client_info": {
        "mobilesdk_app_id": "1:254063705740:android:3f4b13019c4a2ebfae05a9",
        "android_client_info": {
          "package_name": "com.android.centrl"
        }
      },
      "oauth_client": [
        {
          "client_id": "254063705740-0pe0q5nhntg79cmlf5jjocmp3evi9ar6.apps.googleusercontent.com",
          "client_type": 1,
          "android_info": {
            "package_name": "com.android.centrl",
            "certificate_hash": "ccada6a9bedc686453e49949d8170fb05b5d99db"
          }
        },
        {
          "client_id": "254063705740-hsjp4udt9il72jikh9iregjm0iplru4h.apps.googleusercontent.com",
          "client_type": 1,
          "android_info": {
            "package_name": "com.android.centrl",
            "certificate_hash": "4cf21c37dedc0ac61d922b3eb7a6db84e474feca"
          }
        },
        {
          "client_id": "254063705740-h1o6v6kl7ihr3lpgnfuivb6m7p1jus0n.apps.googleusercontent.com",
          "client_type": 3
        }
      ],
      "api_key": [
        {
          "current_key": "AIzaSyASNTScra5M_icQE51enk_cvqTaVPtGqGo"
        }
      ],
      "services": {
        "appinvite_service": {
          "other_platform_oauth_client": [
            {
              "client_id": "254063705740-0uutm61epod77uorfdrfniv3nt5mlddj.apps.googleusercontent.com",
              "client_type": 3
            }
          ]
        }
      }
    },
    {
      "client_info": {
        "mobilesdk_app_id": "1:254063705740:android:d2912612419b02abae05a9",
        "android_client_info": {
          "package_name": "com.android.centrl.dev"
        }
      },
      "oauth_client": [
        {
          "client_id": "254063705740-o9mfhlo0plar8mse76n1a4dgusvrpvg2.apps.googleusercontent.com",
          "client_type": 1,
          "android_info": {
            "package_name": "com.android.centrl.dev",
            "certificate_hash": "ccada6a9bedc686453e49949d8170fb05b5d99db"
          }
        },
        {
          "client_id": "254063705740-jorlubi9ueq75l72oo5p4g0c42ik2cqn.apps.googleusercontent.com",
          "client_type": 1,
          "android_info": {
            "package_name": "com.android.centrl.dev",
            "certificate_hash": "4cf21c37dedc0ac61d922b3eb7a6db84e474feca"
          }
        },
        {
          "client_id": "254063705740-h1o6v6kl7ihr3lpgnfuivb6m7p1jus0n.apps.googleusercontent.com",
          "client_type": 3
        }
      ],
      "api_key": [
        {
          "current_key": "AIzaSyASNTScra5M_icQE51enk_cvqTaVPtGqGo"
        }
      ],
      "services": {
        "appinvite_service": {
          "other_platform_oauth_client": [
            {
              "client_id": "254063705740-0uutm61epod77uorfdrfniv3nt5mlddj.apps.googleusercontent.com",
              "client_type": 3
            }
          ]
        }
      }
    },
    {
      "client_info": {
        "mobilesdk_app_id": "1:254063705740:android:124c8aa9ccd43eedae05a9",
        "android_client_info": {
          "package_name": "com.android.centrl.stg"
        }
      },
      "oauth_client": [
        {
          "client_id": "254063705740-g3nnkjvmfmvka1gmfb37vk3n7ucuhqn1.apps.googleusercontent.com",
          "client_type": 1,
          "android_info": {
            "package_name": "com.android.centrl.stg",
            "certificate_hash": "ccada6a9bedc686453e49949d8170fb05b5d99db"
          }
        },
        {
          "client_id": "254063705740-el3soflfhmsrn8nlairmaag621sadonl.apps.googleusercontent.com",
          "client_type": 1,
          "android_info": {
            "package_name": "com.android.centrl.stg",
            "certificate_hash": "4cf21c37dedc0ac61d922b3eb7a6db84e474feca"
          }
        },
        {
          "client_id": "254063705740-h1o6v6kl7ihr3lpgnfuivb6m7p1jus0n.apps.googleusercontent.com",
          "client_type": 3
        }
      ],
      "api_key": [
        {
          "current_key": "AIzaSyASNTScra5M_icQE51enk_cvqTaVPtGqGo"
        }
      ],
      "services": {
        "appinvite_service": {
          "other_platform_oauth_client": [
            {
              "client_id": "254063705740-0uutm61epod77uorfdrfniv3nt5mlddj.apps.googleusercontent.com",
              "client_type": 3
            }
          ]
        }
      }
    }
  ],
  "configuration_version": "1"
}